{
  "dependencies": {
    "System.Runtime": "4.0.0",
    "System.Runtime.Handles": "4.0.0",
    "System.Security.Principal.Windows": "4.0.0-rc3-24014-01"
  },
  "frameworks": {
    "netstandard1.3": {
      "imports": [
        "dotnet5.4"
      ]
    }
  }
}
