{
  "frameworks": {
    "netstandard1.3": {
      "dependencies": {
        "Microsoft.NETCore.Platforms": "1.0.1-rc3-24014-01",
        "Microsoft.Win32.Primitives": "4.0.0",
        "System.Diagnostics.Debug": "4.0.10",
        "System.Diagnostics.Tools": "4.0.0",
        "System.IO": "4.0.10",
        "System.IO.FileSystem": "4.0.0",
        "System.IO.FileSystem.Primitives": "4.0.0",
        "System.Resources.ResourceManager": "4.0.0",
        "System.Runtime": "4.0.20",
        "System.Runtime.Extensions": "4.0.10",
        "System.Runtime.Handles": "4.0.0",
        "System.Threading": "4.0.10",
        "System.Threading.Overlapped": "4.0.0",
        "System.Threading.Tasks": "4.0.10",
        "System.Threading.Thread": "4.0.0-rc3-24014-01"
      },
      "imports": [
        "dotnet5.4"
      ]
    }
  },
  "runtimes": {
    "win7-x86": {},
    "win7-x64": {}
  }
}
