{
  "frameworks": {
    "dnxcore50": {
      "dependencies": {
        "Microsoft.NETCore.Platforms": "1.0.1-rc3-24014-01",
        "Microsoft.TargetingPack.Private.CoreCLR": "1.0.0-rc3-24014-01"
      }
    },
    "net462": {
      "dependencies": {
        "Microsoft.TargetingPack.NETFramework.v4.6": "1.0.1"
      }
    },
    "netcore50": {
      "dependencies": {
        "Microsoft.NETCore.Platforms": "1.0.1-rc3-24014-01",
        "Microsoft.TargetingPack.Private.NETNative": "1.0.0-rc3-24014-01",
        "System.Collections": "4.0.0",
        "System.Diagnostics.Contracts": "4.0.0",
        "System.Linq": "4.0.0",
        "System.Reflection": "4.1.0-rc3-24014-01",
        "System.Runtime.Extensions": "4.0.10"
      }
    }
  }
}
