{
  "dependencies": {
    "System.IO": "4.0.0",
    "System.Runtime": "4.0.0",
    "System.Runtime.Handles": "4.0.0",
    "System.Security.Cryptography.Primitives": "4.0.0-rc3-24014-01",
    "System.Security.Cryptography.Algorithms": "4.1.0-rc3-24014-01",
    "System.Security.Cryptography.Encoding": "4.0.0-rc3-24014-01"
  },
  "frameworks": {
    "netstandard1.4": {
      "imports": [
        "dotnet5.5"
      ]
    }
  }
}
