{
  "dependencies": {
    "Microsoft.NETCore.Platforms": "1.0.1-rc3-24014-01",
    "System.Runtime": "4.1.0-rc3-24014-01"
  },
  "frameworks": {
    "dnxcore50": {}
  },
  "runtimes": {
    "win7-x86": {},
    "win7-x64": {},
    "ubuntu.14.04-x64": {},
    "osx.10.10-x64": {},
    "centos.7-x64": {},
    "rhel.7-x64": {},
    "debian.8.2-x64": {}
  }
}
