{
  "frameworks": {
    "netstandard1.3": {
      "dependencies": {
        "Microsoft.NETCore.Platforms": "1.0.1-rc3-24014-01",
        "System.Collections": "4.0.0",
        "System.Collections.Concurrent": "4.0.0",
        "System.Diagnostics.Contracts": "4.0.0",
        "System.Diagnostics.Debug": "4.0.10",
        "System.Linq": "4.0.0",
        "System.Resources.ResourceManager": "4.0.0",
        "System.Runtime": "4.0.20",
        "System.Runtime.InteropServices": "4.0.20",
        "System.Text.Encoding": "4.0.10",
        "System.Security.Cryptography.Primitives": "4.0.0-rc3-24014-01"
      },
      "imports": [
        "dotnet5.4"
      ]
    },
    "net46": {
      "dependencies": {
        "Microsoft.TargetingPack.NETFramework.v4.6": "1.0.1"
      }
    }
  }
}
