{
  "dependencies": {
    "System.Diagnostics.DiagnosticSource": "4.0.0-rc3-24014-01"
  },
  "frameworks": {
    "netstandard1.4": {
      "imports": [
        "dotnet5.5"
      ],
      "dependencies": {
        "Microsoft.NETCore.Platforms": "1.0.1-rc3-24014-01",
        "Microsoft.Win32.Primitives": "4.0.0",
        "System.Collections": "4.0.10",
        "System.Diagnostics.Contracts": "4.0.0",
        "System.Diagnostics.Debug": "4.0.10",
        "System.Diagnostics.Tools": "4.0.0",
        "System.Globalization": "4.0.10",
        "System.Globalization.Extensions": "4.0.0",
        "System.IO": "4.0.10",
        "System.IO.FileSystem": "4.0.0",
        "System.IO.Compression": "4.0.0",
        "System.Net.Primitives": "4.0.10",
        "System.Resources.ResourceManager": "4.0.0",
        "System.Runtime.Extensions": "4.0.10",
        "System.Runtime.Handles": "4.0.0",
        "System.Runtime.InteropServices": "4.0.20",
        "System.Security.Cryptography.OpenSsl": "4.0.0-rc3-24014-01",
        "System.Security.Cryptography.X509Certificates": "4.1.0-rc3-24014-01",
        "System.Text.Encoding": "4.0.10",
        "System.Threading": "4.0.0",
        "System.Threading.Tasks": "4.0.10"
      }
    }
  },
  "runtimes": {
    "ubuntu.14.04-x64": {},
    "osx.10.10-x64": {}
  }
}
