{
  "frameworks": {
    "netstandard1.0": {
      "dependencies": {
        "Microsoft.NETCore.Platforms": "1.0.1-rc3-24014-01",
        "System.Collections": "4.0.0",
        "System.Diagnostics.Debug": "4.0.0",
        "System.Diagnostics.Tools": "4.0.0",
        "System.Globalization": "4.0.0",
        "System.IO": "4.0.0",
        "System.Resources.ResourceManager": "4.0.0",
        "System.Runtime": "4.0.0",
        "System.Runtime.Extensions": "4.0.0",
        "System.Text.RegularExpressions": "4.0.0",
        "System.Threading.Tasks": "4.0.0"
      },
      "imports": [
        "dotnet5.1"
      ]
    },
    "net45": {
      "dependencies": {
        "Microsoft.TargetingPack.NETFramework.v4.5": "1.0.1"
      }
    }
  }
}
