{
  "frameworks": {
    "netstandard1.3": {
      "dependencies": {
        "Microsoft.NETCore.Platforms": "1.0.1-rc3-24014-01",
        "System.Diagnostics.Tools": "4.0.0",
        "System.Globalization": "4.0.10",
        "System.IO": "4.0.10",
        "System.IO.FileSystem": "4.0.0",
        "System.Reflection.Metadata": "1.0.22",
        "System.Runtime": "4.0.20",
        "System.Runtime.InteropServices": "4.0.20",
        "System.Threading.Tasks": "4.0.10"
      },
      "imports": [
        "dotnet5.4"
      ]
    },
    "net46": {
      "dependencies": {
        "Microsoft.TargetingPack.NETFramework.v4.6": "1.0.1"
      }
    }
  }
}
