{
  "dependencies": {
    "Microsoft.NETCore.Platforms": "1.0.1-rc3-24014-01",
    "System.Globalization": "4.0.11-rc3-24014-01",
    "System.IO": "4.1.0-rc3-24014-01",
    "System.Linq.Expressions": "4.0.11-rc3-24014-01",
    "System.ObjectModel": "4.0.12-rc3-24014-01",
    "System.Reflection": "4.1.0-rc3-24014-01",
    "System.Runtime": "4.1.0-rc3-24014-01",
    "System.Runtime.Extensions": "4.1.0-rc3-24014-01",
    "System.Text.Encoding": "4.0.11-rc3-24014-01",
    "System.Text.Encoding.CodePages": "4.0.1-rc3-24014-01",
    "System.Threading.Tasks": "4.0.11-rc3-24014-01",
    "System.Xml.ReaderWriter": "4.0.11-rc3-24014-01",
    "xunit": "2.1.0",
    "xunit.netcore.extensions": "1.0.0-prerelease-00231-07",
    "test-runtime": {
      "target": "project",
      "exclude": "compile"
    }
  },
  "frameworks": {
    "dnxcore50": {
      "imports": "portable-net45+win8"
    }
  },
  "runtimes": {
    "win7-x86": {},
    "win7-x64": {},
    "ubuntu.14.04-x64": {},
    "osx.10.10-x64": {},
    "centos.7-x64": {},
    "rhel.7-x64": {},
    "debian.8.2-x64": {}
  }
}
