{
  "frameworks": {
    "netstandard1.3": {
      "dependencies": {
        "Microsoft.NETCore.Platforms": "1.0.1-rc3-24014-01",
        "Microsoft.Win32.Primitives": "4.0.0",
        "System.Collections": "4.0.10",
        "System.Diagnostics.Contracts": "4.0.0",
        "System.Diagnostics.Debug": "4.0.10",
        "System.Diagnostics.Tracing": "4.0.0",
        "System.Globalization": "4.0.10",
        "System.IO.FileSystem": "4.0.0",
        "System.Linq": "4.0.0",
        "System.Net.Primitives": "4.0.10",
        "System.Net.Sockets": "4.1.0-rc3-24014-01",
        "System.Resources.ResourceManager": "4.0.0",
        "System.Runtime.Handles": "4.0.0",
        "System.Runtime.InteropServices": "4.0.20",
        "System.Security.Principal.Windows": "4.0.0-rc3-24014-01",
        "System.Threading": "4.0.10",
        "System.Threading.Tasks": "4.0.10",
        "System.Threading.Thread": "4.0.0-rc3-24014-01",
        "System.Threading.ThreadPool": "4.0.10-rc3-24014-01",
        "System.Threading.Overlapped": "4.0.0"
      },
      "imports": [
        "dotnet5.4"
      ]
    },
    "net46": {
      "dependencies": {
        "Microsoft.TargetingPack.NETFramework.v4.6": "1.0.1"
      }
    }
  }
}
