{
  "frameworks": {
    "netcore50": {
      "dependencies": {
        "Microsoft.NETCore.Platforms": "1.0.1-rc3-24014-01",
        "Microsoft.TargetingPack.Private.WinRT": "1.0.1",
        "System.Collections": "4.0.10",
        "System.Diagnostics.Debug": "4.0.10",
        "System.Diagnostics.Tools": "4.0.0",
        "System.Diagnostics.Tracing": "4.0.20",
        "System.Globalization": "4.0.10",
        "System.Net.Primitives": "4.0.10",
        "System.Net.WebHeaderCollection": "4.0.0",
        "System.Net.WebSockets": "4.0.0-rc3-24014-01",
        "System.ObjectModel": "4.0.10",
        "System.Resources.ResourceManager": "4.0.0",
        "System.Runtime": "4.0.20",
        "System.Runtime.InteropServices.WindowsRuntime": "4.0.0",
        "System.Runtime.WindowsRuntime": "4.0.10",
        "System.Security.Cryptography.X509Certificates": "4.1.0-rc3-24014-01",
        "System.Text.Encoding": "4.0.10",
        "System.Threading": "4.0.10",
        "System.Threading.Tasks": "4.0.10"
      }
    }
  },
  "runtimes": {
    "win8-x86": {},
    "win8-x64": {}
  }
}
