{
  "frameworks": {
    "netcore50": {
      "dependencies": {
        "Microsoft.NETCore.Platforms": "1.0.1-rc3-24014-01",
        "Microsoft.TargetingPack.Private.WinRT": "1.0.1",
        "System.Collections": "4.0.0",
        "System.Resources.ResourceManager": "4.0.0",
        "System.Runtime": "4.0.20",
        "System.Threading": "4.0.10"
      }
    }
  },
  "runtimes": {
    "win8-x86": {},
    "win8-x64": {}
  }
}
