{
  "frameworks": {
    "netstandard1.3": {
      "dependencies": {
        "Microsoft.TargetingPack.Private.CoreCLR": "1.0.0-rc3-24014-01"
      },
      "imports": [
        "dotnet5.4"
      ]
    },
    "net46": {
      "dependencies": {
        "Microsoft.TargetingPack.NETFramework.v4.6": "1.0.1"
      }
    }
  }
}
