{
  "frameworks": {
    "netstandard1.5": {
      "dependencies": {
        "Microsoft.NETCore.Platforms": "1.0.1-rc3-24014-01",
        "Microsoft.Win32.Primitives": "4.0.0",
        "System.Collections": "4.0.10",
        "System.Diagnostics.Tools": "4.0.0",
        "System.Resources.ResourceManager": "4.0.0",
        "System.Runtime": "4.0.20",
        "System.Runtime.Handles": "4.0.0",
        "System.Runtime.InteropServices": "4.0.20",
        "System.Threading": "4.0.10",
        "System.Threading.Tasks": "4.0.10"
      },
      "imports": [
        "dotnet5.6"
      ]
    },
    "net461": {
      "dependencies": {
        "Microsoft.TargetingPack.NETFramework.v4.6.1": "1.0.1"
      }
    }
  }
}
