{
  "frameworks": {
    "netcore50": {
      "dependencies": {
        "Microsoft.NETCore.Platforms": "1.0.1-rc3-24014-01",
        "Microsoft.TargetingPack.Private.WinRT": "1.0.1",
        "Microsoft.Win32.Primitives": "4.0.0",
        "System.Diagnostics.Tracing": "4.0.20",
        "System.Linq": "4.0.0",
        "System.Net.Sockets": "4.1.0-rc3-24014-01",
        "System.Net.Primitives": "4.0.10",
        "System.Runtime.InteropServices.WindowsRuntime": "4.0.0",
        "System.Threading.Tasks": "4.0.10"
      }
    }
  },
  "runtimes": {
    "win8-x86": {},
    "win8-x64": {}
  }
}
