{
  "frameworks": {
    "netstandard1.0": {
      "dependencies": {
        "Microsoft.NETCore.Platforms": "1.0.1-rc3-24014-01",
        "Microsoft.TargetingPack.Private.CoreCLR": "1.0.0-rc3-24014-01"
      },
      "imports": [
        "dotnet5.1"
      ]
    },
    "netcore50": {
      "dependencies": {
        "Microsoft.NETCore.Platforms": "1.0.1-rc3-24014-01",
        "System.Diagnostics.Contracts": "4.0.0",
        "System.Runtime": "4.0.0",
        "System.Threading": "4.0.10"
      }
    },
    "net46": {
      "dependencies": {
        "Microsoft.TargetingPack.NETFramework.v4.6": "1.0.1"
      }
    }
  }
}
