{
  "dependencies": {
    "Microsoft.NETCore.Platforms": "1.0.1-rc3-24014-01",
    "System.Collections": "4.0.0",
    "System.Diagnostics.Debug": "4.0.0",
    "System.Diagnostics.Tools": "4.0.0",
    "System.Globalization": "4.0.0",
    "System.Linq": "4.0.0",
    "System.Reflection": "4.0.0",
    "System.Resources.ResourceManager": "4.0.0"
  },
  "frameworks": {
    "netstandard1.0": {
      "imports": [
        "dotnet5.1"
      ]
    }
  }
}
