{
  "dependencies": {
    "Microsoft.NETCore.Platforms": "1.0.1-rc3-24014-01",
    "System.Collections": "4.0.10",
    "System.Diagnostics.Contracts": "4.0.0",
    "System.Diagnostics.Debug": "4.0.10",
    "System.Globalization": "4.0.10",
    "System.Globalization.Calendars": "4.0.0",
    "System.IO.FileSystem": "4.0.0",
    "System.IO.FileSystem.Watcher": "4.0.0-rc3-24014-01",
    "System.Resources.ResourceManager": "4.0.0",
    "System.Runtime": "4.0.20",
    "System.Runtime.Handles": "4.0.0",
    "System.Runtime.InteropServices": "4.0.20",
    "System.Runtime.Numerics": "4.0.0",
    "System.Security.Cryptography.Algorithms": "4.1.0-rc3-24014-01",
    "System.Security.Cryptography.Cng": "4.1.0-rc3-24014-01",
    "System.Security.Cryptography.Encoding": "4.0.0-rc3-24014-01",
    "System.Security.Cryptography.Primitives": "4.0.0-rc3-24014-01",
    "System.Text.Encoding": "4.0.10",
    "System.Threading": "4.0.10"
  },
  "frameworks": {
    "netstandard1.4": {
      "imports": [
        "dotnet5.5"
      ],
      "dependencies": {
        "System.Security.Cryptography.Csp": "4.0.0-rc3-24014-01"
      }
    }
  },
  "runtimes": {
    "win7-x86": {},
    "win7-x64": {}
  }
}
