{
  "dependencies": {
    "Microsoft.NETCore.Platforms": "1.0.1-rc3-24014-01",
    "System.Diagnostics.Debug": "4.0.0",
    "System.Runtime": "4.0.0",
    "System.Threading": "4.0.0",
    "System.Reflection": "4.0.0",
    "System.Collections": "4.0.0"
  },
  "frameworks": {
    "netstandard1.3": {
      "dependencies": {
        "System.Diagnostics.Tracing": "4.0.20"
      },
      "imports": [
        "dotnet5.4"
      ]
    },
    "netstandard1.1": {
      "dependencies": {
        "System.Diagnostics.Tracing": "4.0.0"
      },
      "imports": [
        "dotnet5.2"
      ]
    }
  }
}
